…
<img src="man/figures/README-unnamed-chunk-3-1.png" width="100%" />

``` r
#~~~~~~~~~~~~~~~~~~~~~~~~~~~~~~~~~~~~~~~~~~~~~~~~~~~~~~~~~~~~~~~~~~~~~~~~~~~~~
# View the entire font as a data.frame of coordiantes
#~~~~~~~~~~~~~~~~~~~~~~~~~~~~~~~~~~~~~~~~~~~~~~~~~~~~~~~~~~~~~~~~~~~~~~~~~~~~~
as.data.frame(myfont)
```

    # A tibble: 2,385 x 10
       encoding desc    dwidth     x     y  size pixel_size font_ascent font_descent
     *    <int> <chr>    <int> <dbl> <dbl> <int>      <int>       <int>        <int>
     1       32 SPACE        5    NA    NA     8          8           7            1
     2       33 EXCLAM…      5     3     7     8          8           7            1
     3       33 EXCLAM…      5     3     6     8          8           7            1
     4       33 EXCLAM…      5     3     5     8          8           7            1
     5       33 EXCLAM…      5     3     4     8          8           7            1
     6       33 EXCLAM…      5     3     3     8          8           7            1
     7       33 EXCLAM…      5     3     1     8          8           7            1
     8       34 QUOTAT…      5     4     7     8          8           7            1
     9       34 QUOTAT…      5     2     7     8          8           7            1
    10       34 QUOTAT…      5     4     6     8          8           7            1
    # … with 2,375 more rows, and 1 more variable: line_height <int>

``` r
#~~~~~~~~~~~~~~~~~~~~~~~~~~~~~~~~~~~~~~~~~~~~~~~~~~~~~~~~~~~~~~~~~~~~~~~~~~~~~
# View the coordinates of a string rendered in this font
#~~~~~~~~~~~~~~~~~~~~~~~~~~~~~~~~~~~~~~~~~~~~~~~~~~~~~~~~~~~~~~~~~~~~~~~~~~~~~
bdf_create_df(myfont, "abc")
```

    # A tibble: 34 x 3
           x     y   idx
       <dbl> <dbl> <int>
     1     3     5     1
     2     2     5     1
     3     4     4     1
     4     4     3     1
     5     3     3     1
     6     2     3     1
     7     4     2     1
     8     1     2     1
     9     4     1     1
    10     3     1     1
    # … with 24 more rows
…
